{
  "log" : {
    "version" : "1.2",
    "pages" : [ ],
    "entries" : [ {
      "startedDateTime" : "2023-09-18T01:43:18.558Z",
      "request" : {
        "method" : "POST",
        "url" : "https://demo-app.online/api/login",
        "httpVersion" : "",
        "cookies" : [ ],
        "headers" : [ {
          "name" : "Content-Type",
          "value" : "multipart/form-data"
        } ],
        "queryString" : [ ],
        "postData" : {
          "mimeType" : "multipart/form-data",
          "text" : "--xxAyo1IdYNaRe807uMtlOO7Ckyp066f2Nhre\r\nContent-Disposition: form-data; name=\"email\"\r\nContent-Type: text/plain; charset=ISO-8859-1\r\nContent-Transfer-Encoding: 8bit\r\n\r\nadinatarezawahyu@gmail.com\r\n--xxAyo1IdYNaRe807uMtlOO7Ckyp066f2Nhre\r\nContent-Disposition: form-data; name=\"password\"\r\nContent-Type: text/plain; charset=ISO-8859-1\r\nContent-Transfer-Encoding: 8bit\r\n\r\nrezawahyu123\r\n--xxAyo1IdYNaRe807uMtlOO7Ckyp066f2Nhre--\r\n",
          "comment" : ""
        },
        "headersSize" : 0,
        "bodySize" : 0,
        "comment" : ""
      },
      "response" : {
        "status" : 200,
        "statusText" : "",
        "httpVersion" : "",
        "cookies" : [ ],
        "headers" : [ {
          "name" : "Keep-Alive",
          "value" : "timeout=5, max=100"
        }, {
          "name" : "access-control-allow-origin",
          "value" : "*"
        }, {
          "name" : "date",
          "value" : "Mon, 18 Sep 2023 01:43:18 GMT"
        }, {
          "name" : "server",
          "value" : "LiteSpeed"
        }, {
          "name" : "x-ratelimit-limit",
          "value" : "60"
        }, {
          "name" : "vary",
          "value" : "Accept-Encoding"
        }, {
          "name" : "Connection",
          "value" : "Keep-Alive"
        }, {
          "name" : "x-powered-by",
          "value" : "PHP/7.4.33"
        }, {
          "name" : "content-type",
          "value" : "application/json"
        }, {
          "name" : "#status#",
          "value" : "HTTP/1.1 200 OK"
        }, {
          "name" : "cache-control",
          "value" : "no-cache, private"
        }, {
          "name" : "x-ratelimit-remaining",
          "value" : "48"
        } ],
        "content" : {
          "size" : 1356,
          "mimeType" : "application/json",
          "text" : "{\"success\":{\"member_name\":\"Basic\",\"member_id\":1,\"token\":\"eyJ0eXAiOiJKV1QiLCJhbGciOiJSUzI1NiJ9.eyJhdWQiOiIzIiwianRpIjoiM2M3N2Q5ZWYzZDMwNDVmZmU0MjMzNGNiYTdkMTcyMDBhZWRiZGQ4MDBjYTA2OGZiYzg5YWQ0ZmYzOWVjZjUwNDBiMGUwMjljN2MyNGM4Y2UiLCJpYXQiOjE2OTUwMDEzOTguMjExNzI4LCJuYmYiOjE2OTUwMDEzOTguMjExNzMxLCJleHAiOjE3MjY2MjM3OTguMjEwNzc2LCJzdWIiOiI5MDYiLCJzY29wZXMiOltdfQ.SGl-nUmMiJq4HExBor5X9X-DjdQwlCMS1wCnkW6CY9HyD48PMHJjLQV_aQg_bTChectFMWHkcjeQDlJX2gfGfuFA2s79md2-BhnQP0T1IR9EsIFVm9ttYKsQm5JEzuhwy4qGray9k4kiqZPa2N6RrXKx-cTeUEGK_eB56_JIw2crtbdnF9S3tkGyUl4JAX36mnD8HaK0w0bkiUVtJ5KW2BuxoMOxDiVOocIBfdsIALi3RN0VKRrXV17jtBhDffRuatgcD3E8qsX1LZXx-ctB99pMFtCq-pwewcszcBdjiQYcRNW601DgvVLy7k82Z7rmfVNK014ozSIWoSqLDqB4TSEJKfmh1fPp9zNasBp2QlaSG5kFX73fg3PG3nmN2sgL-xDA6oQQLiR4r7a2i0yP2YyU-OnRyZAKpaVenSgcGU8j73FHJOLlJYX7cUE2Qn3NUf2q1A9u8eQtKGGlG1qJLYSHSeo6TFJ_9p8rHOezjk4_C2TIsleqHjtYy637DMon_hrySsf_NR3gq1SGBUhv4is8zAChB2gv3ODqPwJN-be2fWAQSWlgyhK5YtBfDN0RSvken2cJQ-C5HypPvTknQx65-VmJ3j-zBtOe0FJ8RDFBvxfWfiZAy2Zd8SPx61Y0dyA5HEe4jdroJrbuO2Xwom5N0ueTqsqBpUxPT7jnCh0\",\"name\":\"Reza Wahyu Adinata\",\"email\":\"adinatarezawahyu@gmail.com\",\"birth_date\":\"1923-12-31\",\"whatsapp\":\"081385484593\",\"referral\":\"SFH3G\",\"points\":\"0\",\"bio\":null,\"position\":null,\"photo\":\"https:\\/\\/storage.googleapis.com\\/codingid-storage-bucket\\/storage\\/uploads\\/avatar\\/1694702212gambar_10.jpg\",\"isPartner\":false}}",
          "comment" : ""
        },
        "redirectURL" : "",
        "headersSize" : 265,
        "bodySize" : -1,
        "comment" : ""
      },
      "cache" : { },
      "timings" : {
        "comment" : "",
        "ssl" : -1,
        "connect" : 0,
        "dns" : -1,
        "blocked" : -1,
        "send" : 0,
        "wait" : 0,
        "receive" : 0
      },
      "comment" : "",
      "_katalonRequestInformation" : {
        "name" : "11",
        "testObjectId" : "Object Repository/or3_API/ora1_login/a1-login",
        "harId" : "1c16e854-6c00-454c-b6a1-992e406b6d2b",
        "reportFolder" : null
      },
      "time" : 0
    } ],
    "comment" : ""
  }
}