{
  "log" : {
    "version" : "1.2",
    "pages" : [ ],
    "entries" : [ {
      "startedDateTime" : "2023-09-18T01:43:15.504Z",
      "request" : {
        "method" : "POST",
        "url" : "https://demo-app.online/api/login",
        "httpVersion" : "",
        "cookies" : [ ],
        "headers" : [ {
          "name" : "Content-Type",
          "value" : "multipart/form-data"
        } ],
        "queryString" : [ ],
        "postData" : {
          "mimeType" : "multipart/form-data",
          "text" : "--EZMHWfjbHD-5Jgc36-tmxQf4u19oZatbY\r\nContent-Disposition: form-data; name=\"email\"\r\nContent-Type: text/plain; charset=ISO-8859-1\r\nContent-Transfer-Encoding: 8bit\r\n\r\nrezawahyuadinata0301@gmail.com\r\n--EZMHWfjbHD-5Jgc36-tmxQf4u19oZatbY\r\nContent-Disposition: form-data; name=\"password\"\r\nContent-Type: text/plain; charset=ISO-8859-1\r\nContent-Transfer-Encoding: 8bit\r\n\r\nrezawahyu123\r\n--EZMHWfjbHD-5Jgc36-tmxQf4u19oZatbY--\r\n",
          "comment" : ""
        },
        "headersSize" : 0,
        "bodySize" : 0,
        "comment" : ""
      },
      "response" : {
        "status" : 200,
        "statusText" : "",
        "httpVersion" : "",
        "cookies" : [ ],
        "headers" : [ {
          "name" : "Keep-Alive",
          "value" : "timeout=5, max=100"
        }, {
          "name" : "access-control-allow-origin",
          "value" : "*"
        }, {
          "name" : "date",
          "value" : "Mon, 18 Sep 2023 01:43:15 GMT"
        }, {
          "name" : "server",
          "value" : "LiteSpeed"
        }, {
          "name" : "x-ratelimit-limit",
          "value" : "60"
        }, {
          "name" : "vary",
          "value" : "Accept-Encoding"
        }, {
          "name" : "Connection",
          "value" : "Keep-Alive"
        }, {
          "name" : "x-powered-by",
          "value" : "PHP/7.4.33"
        }, {
          "name" : "content-type",
          "value" : "application/json"
        }, {
          "name" : "#status#",
          "value" : "HTTP/1.1 200 OK"
        }, {
          "name" : "cache-control",
          "value" : "no-cache, private"
        }, {
          "name" : "x-ratelimit-remaining",
          "value" : "51"
        } ],
        "content" : {
          "size" : 1254,
          "mimeType" : "application/json",
          "text" : "{\"success\":{\"member_name\":\"Basic\",\"member_id\":1,\"token\":\"eyJ0eXAiOiJKV1QiLCJhbGciOiJSUzI1NiJ9.eyJhdWQiOiIzIiwianRpIjoiZGU5MzE4ZmNjMzFiMmM4MTNlNjU3MjM4YWNiOGQ2NWYwZWExY2E3YTFjNTMzMzQ3Y2QyNDJlMWFiMGQzZTdmNmZkYTU0OTJjODIwNzIxMDAiLCJpYXQiOjE2OTUwMDEzOTUuMjU2MDc3LCJuYmYiOjE2OTUwMDEzOTUuMjU2MDc5LCJleHAiOjE3MjY2MjM3OTUuMjU1MTE2LCJzdWIiOiI5NDkiLCJzY29wZXMiOltdfQ.W5V3U4ZtNhjXb0cppN4yHuELtAM71et_i8MnPj8KQR13_lZeag73Xa8Ue-TDuUBEt87OnU54WfsaafEb4JW3F71etA1o23MTvS7r0MdzSQGGJ0vtM_Qcc9o5rgGbzYvni5mF0aGIGfVQv7Fc9wbDACGzDtk-k7hsJNpel3CAKI92JLmy3UC4mAvAb1k7GHEFTB4roQRHr7jtUz7lhv8vAVfFTELZwhnxMShkXrQ3Jc_ZpPrB5jM0hBBg9Nb3-H4nfBzlDB5MTah0z2HC507gY6JdeAPzLO87vAMOvCq2Qpjd1wyFoQGzXGvOFDSk50kAxwInguznGNNDv8t_iYooEUEcm3xVpWwn24BETa1tPK8pgf51JrpsPQjUI0Z4YMC0ajA1noP0q1t8_1UGw8cyJKEbONN9tOXk02n8LdZuRCbdPFSpaLOCp9S4RVxmh7nDGt5BHgDhlNpz24HYYW-4IPecOb-DGPrh9NT5uD9Fd7hZkELqY5JNOS0Z6Dn1FDboPrDEul8-vxZ_Y8-_RGEDd7UYmWblwTggLC3R3Svbla5z1dZCevO5HFfi0SOAP2SPd9LRVZXQLiwbUqpOCkzba-gHqQxU82e1nyoF2bP0hLbrSoQ4yrXyUG98i86pkFZwItzMhTvXLNWe8V7ZLeJPrfEIRUpzJY1L00nnDR99zU8\",\"name\":\"Reza Wahyu Adinata\",\"email\":\"rezawahyuadinata0301@gmail.com\",\"birth_date\":\"2000-01-03\",\"whatsapp\":\"081385484594\",\"referral\":\"M5XYR\",\"points\":\"0\",\"bio\":null,\"position\":null,\"photo\":null,\"isPartner\":false}}",
          "comment" : ""
        },
        "redirectURL" : "",
        "headersSize" : 265,
        "bodySize" : -1,
        "comment" : ""
      },
      "cache" : { },
      "timings" : {
        "comment" : "",
        "ssl" : -1,
        "connect" : 0,
        "dns" : -1,
        "blocked" : -1,
        "send" : 0,
        "wait" : 0,
        "receive" : 0
      },
      "comment" : "",
      "_katalonRequestInformation" : {
        "name" : "8",
        "testObjectId" : "Object Repository/or3_API/ora1_login/a1-login",
        "harId" : "5c8b59a3-a238-4aa9-983b-2e406a6e47ed",
        "reportFolder" : null
      },
      "time" : 0
    } ],
    "comment" : ""
  }
}