{
  "log" : {
    "version" : "1.2",
    "pages" : [ ],
    "entries" : [ {
      "startedDateTime" : "2023-09-18T12:24:09.580Z",
      "request" : {
        "method" : "POST",
        "url" : "https://demo-app.online/api/login",
        "httpVersion" : "",
        "cookies" : [ ],
        "headers" : [ {
          "name" : "Content-Type",
          "value" : "multipart/form-data"
        } ],
        "queryString" : [ ],
        "postData" : {
          "mimeType" : "multipart/form-data",
          "text" : "--IwrT7l3NUJ0TbCbbFpuFQdRN3HL7g5AVejeNB5\r\nContent-Disposition: form-data; name=\"email\"\r\nContent-Type: text/plain; charset=ISO-8859-1\r\nContent-Transfer-Encoding: 8bit\r\n\r\nadinatarezawahyu@gmail.com\r\n--IwrT7l3NUJ0TbCbbFpuFQdRN3HL7g5AVejeNB5\r\nContent-Disposition: form-data; name=\"password\"\r\nContent-Type: text/plain; charset=ISO-8859-1\r\nContent-Transfer-Encoding: 8bit\r\n\r\nrezawahyu123\r\n--IwrT7l3NUJ0TbCbbFpuFQdRN3HL7g5AVejeNB5--\r\n",
          "comment" : ""
        },
        "headersSize" : 0,
        "bodySize" : 0,
        "comment" : ""
      },
      "response" : {
        "status" : 200,
        "statusText" : "",
        "httpVersion" : "",
        "cookies" : [ ],
        "headers" : [ {
          "name" : "Keep-Alive",
          "value" : "timeout=5, max=100"
        }, {
          "name" : "access-control-allow-origin",
          "value" : "*"
        }, {
          "name" : "date",
          "value" : "Mon, 18 Sep 2023 12:24:08 GMT"
        }, {
          "name" : "server",
          "value" : "LiteSpeed"
        }, {
          "name" : "x-ratelimit-limit",
          "value" : "60"
        }, {
          "name" : "vary",
          "value" : "Accept-Encoding"
        }, {
          "name" : "Connection",
          "value" : "Keep-Alive"
        }, {
          "name" : "x-powered-by",
          "value" : "PHP/7.4.33"
        }, {
          "name" : "content-type",
          "value" : "application/json"
        }, {
          "name" : "#status#",
          "value" : "HTTP/1.1 200 OK"
        }, {
          "name" : "cache-control",
          "value" : "no-cache, private"
        }, {
          "name" : "x-ratelimit-remaining",
          "value" : "45"
        } ],
        "content" : {
          "size" : 1348,
          "mimeType" : "application/json",
          "text" : "{\"success\":{\"member_name\":\"Basic\",\"member_id\":1,\"token\":\"eyJ0eXAiOiJKV1QiLCJhbGciOiJSUzI1NiJ9.eyJhdWQiOiIzIiwianRpIjoiZGFlZjU2MzhkOGUxNzEzNzc2YjZjZDhiYTMyZjE4YzljNDFkZTJmYjk4OWU1Y2QzYTZjNDBiNzlkNjJjZTIyZGVkYjRhODU2NzgwODI4YzQiLCJpYXQiOjE2OTUwMzk4NDguNzcwODc2LCJuYmYiOjE2OTUwMzk4NDguNzcwODc4LCJleHAiOjE3MjY2NjIyNDguNzY5ODY4LCJzdWIiOiI5MDYiLCJzY29wZXMiOltdfQ.J-m74P0SoYKxRShiaX9I2MpiTQKgrU-QSeR_zJ2tYHiwUJNs0QKfZRL9gt2ykxXU-rfNxjObPT9MbkYA0feXv7tk45110IqqnnMIHBzEb5hBWtimOLen0db6VnlpZND94G5rmNSejtqOJ33vP0O3XRifsoIahbz8SO_LspRRTc43lolw5KO-5RedCszZmBRWiG1p4R8KvxoIAS_boMMKIoC3LSfrYoeFCro07AZsT1DV1DAWkeoRz2KZv_M3HJ-bnctmXoI87-hpnf5makEY_OHugFnvTBzaOP2pL_QJS67S5OdoIRYJF9hguB334mXXzRbec8upkcK8FwEibb75zxLehG6aAUck7uzYpFMF0dqos9-EZMFya9eB_UMgrD4HF7r6Ggb-2cHHcVy0Ab4eG7cv96ZNwI3sV4hlarQCzGQ4TAhUA0kLn23gf2jKKeAcPyJdMe1smAZlRKfh6iJzO73Pk5vNn9A8lhw2SgnZnBgc-A64WVkIox36wOsyitSvVrhMt613kgmCh_XjmU3D1pW9Y8IRX3qEIdawYZfS_ssqRIDwnyUjPT3KzWcBP_1L-1naCoViVO2eSVrXXz40w8bJWBVSxTYjUtKSFcwLcy3rsMc_99O9DByAl37zaMDfA89734Iuii1BTAJpl9j6s92WW2xuHOtx13rPxEXHvDo\",\"name\":\"1234567890\",\"email\":\"adinatarezawahyu@gmail.com\",\"birth_date\":\"2016-12-31\",\"whatsapp\":\"081385484594\",\"referral\":\"SFH3G\",\"points\":\"0\",\"bio\":null,\"position\":null,\"photo\":\"https:\\/\\/storage.googleapis.com\\/codingid-storage-bucket\\/storage\\/uploads\\/avatar\\/1694702212gambar_10.jpg\",\"isPartner\":false}}",
          "comment" : ""
        },
        "redirectURL" : "",
        "headersSize" : 265,
        "bodySize" : -1,
        "comment" : ""
      },
      "cache" : { },
      "timings" : {
        "comment" : "",
        "ssl" : -1,
        "connect" : 0,
        "send" : 0,
        "receive" : 0,
        "dns" : -1,
        "wait" : 0,
        "blocked" : -1
      },
      "comment" : "",
      "_katalonRequestInformation" : {
        "name" : "14",
        "testObjectId" : "Object Repository/or3_API/ora1_login/a1-login",
        "harId" : "a99c61d8-a226-4bde-acd1-6019e6f17d5c",
        "reportFolder" : null
      },
      "time" : 0
    } ],
    "comment" : ""
  }
}