{
  "log" : {
    "version" : "1.2",
    "pages" : [ ],
    "entries" : [ {
      "startedDateTime" : "2023-09-18T12:24:02.466Z",
      "request" : {
        "method" : "POST",
        "url" : "https://demo-app.online/api/login",
        "httpVersion" : "",
        "cookies" : [ ],
        "headers" : [ {
          "name" : "Content-Type",
          "value" : "multipart/form-data"
        } ],
        "queryString" : [ ],
        "postData" : {
          "mimeType" : "multipart/form-data",
          "text" : "--3goPXW2qFmKcoGFEdvmNPYs4HGrJ4VEnkJ\r\nContent-Disposition: form-data; name=\"email\"\r\nContent-Type: text/plain; charset=ISO-8859-1\r\nContent-Transfer-Encoding: 8bit\r\n\r\nadinatarezawahyu@gmail.com\r\n--3goPXW2qFmKcoGFEdvmNPYs4HGrJ4VEnkJ\r\nContent-Disposition: form-data; name=\"password\"\r\nContent-Type: text/plain; charset=ISO-8859-1\r\nContent-Transfer-Encoding: 8bit\r\n\r\nrezawahyu123\r\n--3goPXW2qFmKcoGFEdvmNPYs4HGrJ4VEnkJ--\r\n",
          "comment" : ""
        },
        "headersSize" : 0,
        "bodySize" : 0,
        "comment" : ""
      },
      "response" : {
        "status" : 200,
        "statusText" : "",
        "httpVersion" : "",
        "cookies" : [ ],
        "headers" : [ {
          "name" : "Keep-Alive",
          "value" : "timeout=5, max=100"
        }, {
          "name" : "access-control-allow-origin",
          "value" : "*"
        }, {
          "name" : "date",
          "value" : "Mon, 18 Sep 2023 12:24:01 GMT"
        }, {
          "name" : "server",
          "value" : "LiteSpeed"
        }, {
          "name" : "x-ratelimit-limit",
          "value" : "60"
        }, {
          "name" : "vary",
          "value" : "Accept-Encoding"
        }, {
          "name" : "Connection",
          "value" : "Keep-Alive"
        }, {
          "name" : "x-powered-by",
          "value" : "PHP/7.4.33"
        }, {
          "name" : "content-type",
          "value" : "application/json"
        }, {
          "name" : "#status#",
          "value" : "HTTP/1.1 200 OK"
        }, {
          "name" : "cache-control",
          "value" : "no-cache, private"
        }, {
          "name" : "x-ratelimit-remaining",
          "value" : "53"
        } ],
        "content" : {
          "size" : 1348,
          "mimeType" : "application/json",
          "text" : "{\"success\":{\"member_name\":\"Basic\",\"member_id\":1,\"token\":\"eyJ0eXAiOiJKV1QiLCJhbGciOiJSUzI1NiJ9.eyJhdWQiOiIzIiwianRpIjoiZThlNjRlZDRkZmZiZmQwMjkxZmI0MTY3Nzk0ZWY5ZDRmYWQ4OTRmNTk5N2MyNGZjOGI0MWRjZGYyYWQ5Y2M0N2YzZTJiMzIzN2UxNjNmZTYiLCJpYXQiOjE2OTUwMzk4NDEuNjQ4OTIyLCJuYmYiOjE2OTUwMzk4NDEuNjQ4OTI0LCJleHAiOjE3MjY2NjIyNDEuNjQ2MDU4LCJzdWIiOiI5MDYiLCJzY29wZXMiOltdfQ.Y3KUFLmMs-9ljnzPQUzP3T9FL-yml0UWOb3vrDEM2pdXPccy4MPgVQ6GpaB2mmF6DsDYUXIBuDpSfHKPXIci8iVRfWX6C_M0gVvB9rvta8viWwS0tcRScSuy1dl1z0cBKnTBX9CYYvVJ6SwYsbTjk6yzFS7PaYiMmUfDzP6PL3kVGpaVNVxH7kj_lkW9H-6e6iGsFmP2bCUkmMB9DOkbDIBqGKrQdXpE_1Hni6KNV3NhM7gAAyHI7qm1P123dNuzC3fFkGrGpgdN8dRDmw6B4qjxX-Fd3ITSnYz4a0w4iNYA8wr-EJIig7J76RR_5gPYbYFJ7SqDHg3L5Jm7ZTqDOp6e95Kec33nn988mSK_jJLroM2VLKAj_7BOmt--LPzGo5uMOgNzb1HxuUdXNZ62Co_mBTTQdohL_sEYmRSosDsthoBR163vtY2-8eWxgPuxm6MJHJ3R3HBuwSNtySAnnCMRpsFpfe1eHaiDwIubbs0F72mzIIN9CgyhlYS-76W6kgC0uFxaD_Q0---2W4hPOllNBCQy9JgtE_5jMPUDYHAzlVaL57kpWivAPYyEbsJcW_37MGZkyocncN89N1l4qbjgijBoDHPHrTMvybHPaQnsZgN_sdIuggO1rNwuZRW5VOZy6pB7C7tyfd1sKbIfTVIDp0WBoMzutKNjlSuPg38\",\"name\":\"1234567890\",\"email\":\"adinatarezawahyu@gmail.com\",\"birth_date\":\"2016-12-31\",\"whatsapp\":\"081385484594\",\"referral\":\"SFH3G\",\"points\":\"0\",\"bio\":null,\"position\":null,\"photo\":\"https:\\/\\/storage.googleapis.com\\/codingid-storage-bucket\\/storage\\/uploads\\/avatar\\/1694702212gambar_10.jpg\",\"isPartner\":false}}",
          "comment" : ""
        },
        "redirectURL" : "",
        "headersSize" : 265,
        "bodySize" : -1,
        "comment" : ""
      },
      "cache" : { },
      "timings" : {
        "comment" : "",
        "ssl" : -1,
        "connect" : 0,
        "send" : 0,
        "receive" : 0,
        "dns" : -1,
        "wait" : 0,
        "blocked" : -1
      },
      "comment" : "",
      "_katalonRequestInformation" : {
        "name" : "6",
        "testObjectId" : "Object Repository/or3_API/ora1_login/a1-login",
        "harId" : "1917e890-766c-4ca1-9e9a-ea0397cd11fb",
        "reportFolder" : null
      },
      "time" : 0
    } ],
    "comment" : ""
  }
}