{
  "log" : {
    "version" : "1.2",
    "pages" : [ ],
    "entries" : [ {
      "startedDateTime" : "2023-09-18T11:40:02.583Z",
      "request" : {
        "method" : "POST",
        "url" : "https://demo-app.online/api/login",
        "httpVersion" : "",
        "cookies" : [ ],
        "headers" : [ {
          "name" : "Content-Type",
          "value" : "multipart/form-data"
        } ],
        "queryString" : [ ],
        "postData" : {
          "mimeType" : "multipart/form-data",
          "text" : "--xcHSDF4sqU0IPLfMpM0Qmh1dE_bMVfyfUn_yj35k\r\nContent-Disposition: form-data; name=\"email\"\r\nContent-Type: text/plain; charset=ISO-8859-1\r\nContent-Transfer-Encoding: 8bit\r\n\r\nadinatarezawahyu@gmail.com\r\n--xcHSDF4sqU0IPLfMpM0Qmh1dE_bMVfyfUn_yj35k\r\nContent-Disposition: form-data; name=\"password\"\r\nContent-Type: text/plain; charset=ISO-8859-1\r\nContent-Transfer-Encoding: 8bit\r\n\r\nrezawahyu123\r\n--xcHSDF4sqU0IPLfMpM0Qmh1dE_bMVfyfUn_yj35k--\r\n",
          "comment" : ""
        },
        "headersSize" : 0,
        "bodySize" : 0,
        "comment" : ""
      },
      "response" : {
        "status" : 200,
        "statusText" : "",
        "httpVersion" : "",
        "cookies" : [ ],
        "headers" : [ {
          "name" : "Keep-Alive",
          "value" : "timeout=5, max=100"
        }, {
          "name" : "access-control-allow-origin",
          "value" : "*"
        }, {
          "name" : "date",
          "value" : "Mon, 18 Sep 2023 11:40:01 GMT"
        }, {
          "name" : "server",
          "value" : "LiteSpeed"
        }, {
          "name" : "x-ratelimit-limit",
          "value" : "60"
        }, {
          "name" : "vary",
          "value" : "Accept-Encoding"
        }, {
          "name" : "Connection",
          "value" : "Keep-Alive"
        }, {
          "name" : "x-powered-by",
          "value" : "PHP/7.4.33"
        }, {
          "name" : "content-type",
          "value" : "application/json"
        }, {
          "name" : "#status#",
          "value" : "HTTP/1.1 200 OK"
        }, {
          "name" : "cache-control",
          "value" : "no-cache, private"
        }, {
          "name" : "x-ratelimit-remaining",
          "value" : "45"
        } ],
        "content" : {
          "size" : 1356,
          "mimeType" : "application/json",
          "text" : "{\"success\":{\"member_name\":\"Basic\",\"member_id\":1,\"token\":\"eyJ0eXAiOiJKV1QiLCJhbGciOiJSUzI1NiJ9.eyJhdWQiOiIzIiwianRpIjoiNjY1YjVkYTY0OWVmMmU5MWM1NmEwYTA0ZDIyMmQ1YzEzMDMzYzdhYjc1OTExNjljNGY3MjVhMmVmMjUwN2M2YzcwYWQwZjYzOGYwYWFlOTkiLCJpYXQiOjE2OTUwMzcyMDEuODIxMjk3LCJuYmYiOjE2OTUwMzcyMDEuODIxMzAxLCJleHAiOjE3MjY2NTk2MDEuODE5NDkxLCJzdWIiOiI5MDYiLCJzY29wZXMiOltdfQ.ReQCkuKTwCMdA9lYzUUinhCT-3kC178ue7OlyZW_ct4CVVHZ5rLil99pZ9uUv3XAzv3grMXeZ4SWf-O3ENfy-52b8YkAYqcGrVzHAnkx_t3nkJ9K2ZpfN2Vv9rXAcrKyKlTO9F5GVUYnwDRQ-YXZ7dG3h0kgxc20u2a7dkCQD8x3iF5zAP-lHVopTCdEC78ZB9uebJ9t_ti9pKTzNNQnDVyZieqXxq3tUvyrM8gQmC2W4OeHDkowRRTiIgwLWPdkt1NuYjPKx6KYVaAa28Cubk7MjhhAsOd4gL3LeWWl4eS5sXHpyXrnqTuYW20HKaz1hhQ4tEz5Z0DNN6f3n0iIHVPtmv5JXTh5YzfpAM0ClltU8fmtyU6BDz8P5SfnvWfPC1eFM26-NVFodHdZjQW6Ou0FivkE3Wn_EV63WLkxU93j4nfRjZVXSJdXMhurHsm2VOGNYCgudrvnSwGPHnKqZhOmxljtf9Z2VeD9tfUUVyCmhWs9R7r1CGW_qyTRboIwOwkOCXbhMqlToa5670ZREcfMOnSTajgGtuz4NnN3suzOvhCSGYgDQJaLSGef5765hhfpO3rvQrxOIbgGMI0qLbGc7VH7BfOaFjcqJYWgHDO4L0KfrHbmvRq-kdZzS6qGnj7IvHDWqhI6_6wtO-y8NhqLaPiXGZQKgJk3mfQOGHI\",\"name\":\"Reza Wahyu Adinata\",\"email\":\"adinatarezawahyu@gmail.com\",\"birth_date\":\"2016-09-03\",\"whatsapp\":\"081385484593\",\"referral\":\"SFH3G\",\"points\":\"0\",\"bio\":null,\"position\":null,\"photo\":\"https:\\/\\/storage.googleapis.com\\/codingid-storage-bucket\\/storage\\/uploads\\/avatar\\/1694702212gambar_10.jpg\",\"isPartner\":false}}",
          "comment" : ""
        },
        "redirectURL" : "",
        "headersSize" : 265,
        "bodySize" : -1,
        "comment" : ""
      },
      "cache" : { },
      "timings" : {
        "comment" : "",
        "ssl" : -1,
        "receive" : 0,
        "dns" : -1,
        "blocked" : -1,
        "send" : 0,
        "wait" : 0,
        "connect" : 0
      },
      "comment" : "",
      "_katalonRequestInformation" : {
        "name" : "14",
        "testObjectId" : "Object Repository/or3_API/ora1_login/a1-login",
        "harId" : "cc90e17f-4fb6-4530-8d0d-f9ba0dff22d6",
        "reportFolder" : null
      },
      "time" : 0
    } ],
    "comment" : ""
  }
}