{
  "log" : {
    "version" : "1.2",
    "pages" : [ ],
    "entries" : [ {
      "startedDateTime" : "2023-09-18T11:40:03.994Z",
      "request" : {
        "method" : "POST",
        "url" : "https://demo-app.online/api/login",
        "httpVersion" : "",
        "cookies" : [ ],
        "headers" : [ {
          "name" : "Content-Type",
          "value" : "multipart/form-data"
        } ],
        "queryString" : [ ],
        "postData" : {
          "mimeType" : "multipart/form-data",
          "text" : "--wJXD_jm_2qWKZadV-5fAJ5b1MNBo2b\r\nContent-Disposition: form-data; name=\"email\"\r\nContent-Type: text/plain; charset=ISO-8859-1\r\nContent-Transfer-Encoding: 8bit\r\n\r\nadinatarezawahyu@gmail.com\r\n--wJXD_jm_2qWKZadV-5fAJ5b1MNBo2b\r\nContent-Disposition: form-data; name=\"password\"\r\nContent-Type: text/plain; charset=ISO-8859-1\r\nContent-Transfer-Encoding: 8bit\r\n\r\nrezawahyu123\r\n--wJXD_jm_2qWKZadV-5fAJ5b1MNBo2b--\r\n",
          "comment" : ""
        },
        "headersSize" : 0,
        "bodySize" : 0,
        "comment" : ""
      },
      "response" : {
        "status" : 200,
        "statusText" : "",
        "httpVersion" : "",
        "cookies" : [ ],
        "headers" : [ {
          "name" : "Keep-Alive",
          "value" : "timeout=5, max=100"
        }, {
          "name" : "access-control-allow-origin",
          "value" : "*"
        }, {
          "name" : "date",
          "value" : "Mon, 18 Sep 2023 11:40:03 GMT"
        }, {
          "name" : "server",
          "value" : "LiteSpeed"
        }, {
          "name" : "x-ratelimit-limit",
          "value" : "60"
        }, {
          "name" : "vary",
          "value" : "Accept-Encoding"
        }, {
          "name" : "Connection",
          "value" : "Keep-Alive"
        }, {
          "name" : "x-powered-by",
          "value" : "PHP/7.4.33"
        }, {
          "name" : "content-type",
          "value" : "application/json"
        }, {
          "name" : "#status#",
          "value" : "HTTP/1.1 200 OK"
        }, {
          "name" : "cache-control",
          "value" : "no-cache, private"
        }, {
          "name" : "x-ratelimit-remaining",
          "value" : "44"
        } ],
        "content" : {
          "size" : 1356,
          "mimeType" : "application/json",
          "text" : "{\"success\":{\"member_name\":\"Basic\",\"member_id\":1,\"token\":\"eyJ0eXAiOiJKV1QiLCJhbGciOiJSUzI1NiJ9.eyJhdWQiOiIzIiwianRpIjoiMmRjNGYzOTgwZTYxMGNjNzk2OTRmZTcyNDc0ODJiNzJhOTI5MjRlMGRlZWY4MjZkNmU4YTdlMWQ4MmM0OWYxMGI1YzA3MzhhZGIzYzcyNjQiLCJpYXQiOjE2OTUwMzcyMDMuMTkwODQzLCJuYmYiOjE2OTUwMzcyMDMuMTkwODQ4LCJleHAiOjE3MjY2NTk2MDMuMTg4Mjc2LCJzdWIiOiI5MDYiLCJzY29wZXMiOltdfQ.YXASVB0v3QuC4p9aZIj1iGcWazxbB6f42dUmGE24QKiqbRvCELdO03FR8YTuq9QgckPUKYl-wac3xM2pfrctH60PCNp0mjyMNtDYcVluSJIbqyDAbiWlRlnUYO0X5T6_RGaG9rYruI9kyhH-6nxaP39LXWtWn6lhx-NupoYR87p_lefApwgNHkY1QXfhMZoFDJA5p9ZuxybxjuA2dmL95kIDf0tQSycFq2tZ9L1D5u7JQ_P1K02FTuqSoVHHkLmq_QjvMxRW4T8es8reKLztuGJnLfylGFL8Oy3enXNuRujaXIO-dsHy_TQQM9vN5qgE-SUMJ25KQXc79Fgo2GFume7QEdd3K-WOfT4CfzuoF7OBVEEVoknrt4DqQLCTqDUtZxvK9HYhOXSn08ue9WYCFUal4mwfh60sAVPWdZrgv0nKXUoHu-oE5yamCgd3r59wnlgpcEeBzLOotbkzoGz-fwPSRUqKcl5ZVaMQKcJWVXKDDVdtX9ewWo_BX4z_dhR6gUTi3ylVr5Olm0ZKRNiL1x9o5RTO6D39CDWrHHBJ1mC1tSlFNH0ofoStlddmfDqTC90C6tjpsTwirZg5vem9t2skV34gZbUEmelV3wWUO_jZUWbC6KsDtLi0mn32BMkslQEoVSSRoFJM0yiuCPYT8FBPyBPaj6ByNh1dO4ZcMCE\",\"name\":\"Reza Wahyu Adinata\",\"email\":\"adinatarezawahyu@gmail.com\",\"birth_date\":\"2016-09-03\",\"whatsapp\":\"081385484593\",\"referral\":\"SFH3G\",\"points\":\"0\",\"bio\":null,\"position\":null,\"photo\":\"https:\\/\\/storage.googleapis.com\\/codingid-storage-bucket\\/storage\\/uploads\\/avatar\\/1694702212gambar_10.jpg\",\"isPartner\":false}}",
          "comment" : ""
        },
        "redirectURL" : "",
        "headersSize" : 265,
        "bodySize" : -1,
        "comment" : ""
      },
      "cache" : { },
      "timings" : {
        "comment" : "",
        "ssl" : -1,
        "receive" : 0,
        "dns" : -1,
        "blocked" : -1,
        "send" : 0,
        "wait" : 0,
        "connect" : 0
      },
      "comment" : "",
      "_katalonRequestInformation" : {
        "name" : "15",
        "testObjectId" : "Object Repository/or3_API/ora1_login/a1-login",
        "harId" : "4d368b92-c2a3-4032-a16b-a509f706e872",
        "reportFolder" : null
      },
      "time" : 0
    } ],
    "comment" : ""
  }
}