Suite/Test/Step Name,Browser,Description,Tag,Start time,End time,Duration,Status
ts5_mobile_registerAsUser,,,,2023-09-18 11:53:34,2023-09-18 12:09:00,15m - 25.870s,FAILED
,,,,,,,
Test Cases/tc2_Mobile/m1_registerAsUser/mr1_menekan hyperlink register,,,,2023-09-18 11:53:34,2023-09-18 11:54:47,1m - 12.544s,PASSED
"startApplication(""C:\Users\E-commerce\git\coding-id-fpt3\OurFile\DemoAppV2.apk"", true)",,,,2023-09-18 11:53:35,2023-09-18 11:54:30,54.996s,PASSED
"tap(findTestObject(""or2_Mobile/orm1_registerAsUser/Register - Login Here""), 0)",,,,2023-09-18 11:54:30,2023-09-18 11:54:36,5.625s,PASSED
"tap(findTestObject(""or2_Mobile/orm1_registerAsUser/Register - Register, now""), 0)",,,,2023-09-18 11:54:36,2023-09-18 11:54:38,2.419s,PASSED
"verifyElementText(findTestObject(""or2_Mobile/orm1_registerAsUser/Register - I agree with Term and Condition""), ""I agree with Term and Condition"")",,,,2023-09-18 11:54:38,2023-09-18 11:54:41,3.006s,PASSED
closeApplication(),,,,2023-09-18 11:54:41,2023-09-18 11:54:47,5.828s,PASSED
,,,,,,,
Test Cases/tc2_Mobile/m1_registerAsUser/mr2_input invalid name,,,,2023-09-18 11:54:47,2023-09-18 11:55:56,1m - 8.567s,PASSED
"startApplication(""C:\Users\E-commerce\git\coding-id-fpt3\OurFile\DemoAppV2.apk"", true)",,,,2023-09-18 11:54:48,2023-09-18 11:55:34,46.960s,PASSED
"tap(findTestObject(""or2_Mobile/orm1_registerAsUser/Register - Login Here""), 0)",,,,2023-09-18 11:55:34,2023-09-18 11:55:41,6.980s,PASSED
"tap(findTestObject(""or2_Mobile/orm1_registerAsUser/Register - Register, now""), 0)",,,,2023-09-18 11:55:41,2023-09-18 11:55:45,3.085s,PASSED
"sendKeys(findTestObject(""or2_Mobile/orm1_registerAsUser/Register - Nama""), ""///^^"")",,,,2023-09-18 11:55:45,2023-09-18 11:55:47,2.527s,PASSED
"verifyElementText(findTestObject(""or2_Mobile/orm1_registerAsUser/Register - Name must be alphabetic""), ""Name must be alphabetic"")",,,,2023-09-18 11:55:47,2023-09-18 11:55:49,2.426s,PASSED
closeApplication(),,,,2023-09-18 11:55:49,2023-09-18 11:55:56,6.151s,PASSED
,,,,,,,
Test Cases/tc2_Mobile/m1_registerAsUser/mr3_input valid name,,,,2023-09-18 11:55:56,2023-09-18 11:57:40,1m - 44.618s,PASSED
"startApplication(""C:\Users\E-commerce\git\coding-id-fpt3\OurFile\DemoAppV2.apk"", true)",,,,2023-09-18 11:55:56,2023-09-18 11:56:50,54.005s,PASSED
"tap(findTestObject(""or2_Mobile/orm1_registerAsUser/Register - Login Here""), 0)",,,,2023-09-18 11:56:50,2023-09-18 11:56:58,7.648s,PASSED
"tap(findTestObject(""or2_Mobile/orm1_registerAsUser/Register - Register, now""), 0)",,,,2023-09-18 11:56:58,2023-09-18 11:57:01,3.138s,PASSED
"sendKeys(findTestObject(""or2_Mobile/orm1_registerAsUser/Register - Nama""), ""Joko Purnomo"")",,,,2023-09-18 11:57:01,2023-09-18 11:57:03,2.372s,PASSED
"verifyElementNotExist(findTestObject(""or2_Mobile/orm1_registerAsUser/Register - Name must be alphabetic""), 0)",,,,2023-09-18 11:57:03,2023-09-18 11:57:34,30.854s,PASSED
closeApplication(),,,,2023-09-18 11:57:34,2023-09-18 11:57:40,6.143s,PASSED
,,,,,,,
Test Cases/tc2_Mobile/m1_registerAsUser/mr4_input valid name dan tanggal lahir,,,,2023-09-18 11:57:40,2023-09-18 12:00:00,2m - 19.996s,PASSED
"startApplication(""C:\Users\E-commerce\git\coding-id-fpt3\OurFile\DemoAppV2.apk"", true)",,,,2023-09-18 11:57:41,2023-09-18 11:58:39,58.088s,PASSED
"tap(findTestObject(""or2_Mobile/orm1_registerAsUser/Register - Login Here""), 0)",,,,2023-09-18 11:58:39,2023-09-18 11:58:46,7.266s,PASSED
"tap(findTestObject(""or2_Mobile/orm1_registerAsUser/Register - Register, now""), 0)",,,,2023-09-18 11:58:46,2023-09-18 11:58:49,3.011s,PASSED
"sendKeys(findTestObject(""or2_Mobile/orm1_registerAsUser/Register - Nama""), ""Joko Purnomo"")",,,,2023-09-18 11:58:49,2023-09-18 11:58:52,2.418s,PASSED
"sendKeys(findTestObject(""or2_Mobile/orm1_registerAsUser/Register - Tanggal Lahir""), ""07-Sep-1900"")",,,,2023-09-18 11:58:52,2023-09-18 11:58:53,1.624s,PASSED
"verifyElementNotExist(findTestObject(""or2_Mobile/orm1_registerAsUser/Register - Name must be alphabetic""), 0)",,,,2023-09-18 11:58:53,2023-09-18 11:59:24,30.248s,PASSED
"verifyElementNotExist(findTestObject(""or2_Mobile/orm1_registerAsUser/Register - Birthdate cant be empty""), 0)",,,,2023-09-18 11:59:24,2023-09-18 11:59:54,30.371s,PASSED
closeApplication(),,,,2023-09-18 11:59:54,2023-09-18 12:00:00,6.300s,PASSED
,,,,,,,
"Test Cases/tc2_Mobile/m1_registerAsUser/mr5_input valid name-tanggal lahir, invalid email",,,,2023-09-18 12:00:00,2023-09-18 12:02:43,2m - 43.197s,FAILED
"startApplication(""C:\Users\E-commerce\git\coding-id-fpt3\OurFile\DemoAppV2.apk"", true)",,,,2023-09-18 12:00:01,2023-09-18 12:00:56,55.474s,PASSED
"tap(findTestObject(""or2_Mobile/orm1_registerAsUser/Register - Login Here""), 0)",,,,2023-09-18 12:00:56,2023-09-18 12:01:03,6.949s,PASSED
"tap(findTestObject(""or2_Mobile/orm1_registerAsUser/Register - Register, now""), 0)",,,,2023-09-18 12:01:03,2023-09-18 12:01:06,2.638s,PASSED
"sendKeys(findTestObject(""or2_Mobile/orm1_registerAsUser/Register - Nama""), ""Joko Purnomo"")",,,,2023-09-18 12:01:06,2023-09-18 12:01:08,2.380s,PASSED
"sendKeys(findTestObject(""or2_Mobile/orm1_registerAsUser/Register - Tanggal Lahir""), ""07-Sep-1900"")",,,,2023-09-18 12:01:08,2023-09-18 12:01:10,1.656s,PASSED
"sendKeys(findTestObject(""or2_Mobile/orm1_registerAsUser/Register - Email""), ""xyz@xyz.com"")",,,,2023-09-18 12:01:10,2023-09-18 12:01:11,1.148s,PASSED
"verifyElementNotExist(findTestObject(""or2_Mobile/orm1_registerAsUser/Register - Name must be alphabetic""), 0)",,,,2023-09-18 12:01:11,2023-09-18 12:01:41,30.131s,PASSED
"verifyElementNotExist(findTestObject(""or2_Mobile/orm1_registerAsUser/Register - Birthdate cant be empty""), 0)",,,,2023-09-18 12:01:41,2023-09-18 12:02:12,30.803s,PASSED
"verifyElementText(findTestObject(""or2_Mobile/orm1_registerAsUser/Register - Format email is not valid""), ""Format email is not valid"")",,,,2023-09-18 12:02:12,2023-09-18 12:02:43,31.343s,FAILED
,,,,,,,
Test Cases/tc2_Mobile/m1_registerAsUser/mr6_input valid whatsapp,,,,2023-09-18 12:02:43,2023-09-18 12:04:27,1m - 43.183s,PASSED
"startApplication(""C:\Users\E-commerce\git\coding-id-fpt3\OurFile\DemoAppV2.apk"", true)",,,,2023-09-18 12:02:44,2023-09-18 12:03:36,52.508s,PASSED
"tap(findTestObject(""or2_Mobile/orm1_registerAsUser/Register - Login Here""), 0)",,,,2023-09-18 12:03:36,2023-09-18 12:03:44,7.847s,PASSED
"tap(findTestObject(""or2_Mobile/orm1_registerAsUser/Register - Register, now""), 0)",,,,2023-09-18 12:03:44,2023-09-18 12:03:47,3.182s,PASSED
"sendKeys(findTestObject(""or2_Mobile/orm1_registerAsUser/Register - WhatsApp""), ""085888405053"")",,,,2023-09-18 12:03:47,2023-09-18 12:03:50,2.453s,PASSED
"verifyElementNotExist(findTestObject(""or2_Mobile/orm1_registerAsUser/Register - WhatsApp number must be 9-13 character""), 0)",,,,2023-09-18 12:03:50,2023-09-18 12:04:20,30.564s,PASSED
closeApplication(),,,,2023-09-18 12:04:20,2023-09-18 12:04:27,6.173s,PASSED
,,,,,,,
Test Cases/tc2_Mobile/m1_registerAsUser/mr7_input invalid whatsapp,,,,2023-09-18 12:04:27,2023-09-18 12:05:46,1m - 19.355s,PASSED
"startApplication(""C:\Users\E-commerce\git\coding-id-fpt3\OurFile\DemoAppV2.apk"", true)",,,,2023-09-18 12:04:27,2023-09-18 12:05:23,55.752s,PASSED
"tap(findTestObject(""or2_Mobile/orm1_registerAsUser/Register - Login Here""), 0)",,,,2023-09-18 12:05:23,2023-09-18 12:05:32,8.755s,PASSED
"tap(findTestObject(""or2_Mobile/orm1_registerAsUser/Register - Register, now""), 0)",,,,2023-09-18 12:05:32,2023-09-18 12:05:35,3.026s,PASSED
"sendKeys(findTestObject(""or2_Mobile/orm1_registerAsUser/Register - WhatsApp""), ""08588840"")",,,,2023-09-18 12:05:35,2023-09-18 12:05:38,2.572s,PASSED
"verifyElementText(findTestObject(""or2_Mobile/orm1_registerAsUser/Register - WhatsApp number must be 9-13 character""), ""WhatsApp number must be 9-13 character"")",,,,2023-09-18 12:05:38,2023-09-18 12:05:40,2.397s,PASSED
closeApplication(),,,,2023-09-18 12:05:40,2023-09-18 12:05:46,6.076s,PASSED
,,,,,,,
Test Cases/tc2_Mobile/m1_registerAsUser/mr8_input valid kata sandi,,,,2023-09-18 12:05:46,2023-09-18 12:07:38,1m - 52.034s,PASSED
"startApplication(""C:\Users\E-commerce\git\coding-id-fpt3\OurFile\DemoAppV2.apk"", true)",,,,2023-09-18 12:05:47,2023-09-18 12:06:48,1m - 1.468s,PASSED
"tap(findTestObject(""or2_Mobile/orm1_registerAsUser/Register - Login Here""), 0)",,,,2023-09-18 12:06:48,2023-09-18 12:06:56,7.780s,PASSED
"tap(findTestObject(""or2_Mobile/orm1_registerAsUser/Register - Register, now""), 0)",,,,2023-09-18 12:06:56,2023-09-18 12:06:59,3.055s,PASSED
"sendKeys(findTestObject(""or2_Mobile/orm1_registerAsUser/Register - Kata Sandi""), ""Abcd123!"")",,,,2023-09-18 12:06:59,2023-09-18 12:07:01,2.548s,PASSED
"verifyElementNotExist(findTestObject(""or2_Mobile/orm1_registerAsUser/Register - Password atleast must contain alphanumeric (a-Z,0-9) with minim 8 characters""), 0)",,,,2023-09-18 12:07:01,2023-09-18 12:07:32,30.340s,PASSED
closeApplication(),,,,2023-09-18 12:07:32,2023-09-18 12:07:38,6.265s,PASSED
,,,,,,,
Test Cases/tc2_Mobile/m1_registerAsUser/mr9_input invalid kata sandi,,,,2023-09-18 12:07:38,2023-09-18 12:09:00,1m - 21.807s,PASSED
"startApplication(""C:\Users\E-commerce\git\coding-id-fpt3\OurFile\DemoAppV2.apk"", true)",,,,2023-09-18 12:07:39,2023-09-18 12:08:37,57.864s,PASSED
"tap(findTestObject(""or2_Mobile/orm1_registerAsUser/Register - Login Here""), 0)",,,,2023-09-18 12:08:37,2023-09-18 12:08:45,8.280s,PASSED
"tap(findTestObject(""or2_Mobile/orm1_registerAsUser/Register - Register, now""), 0)",,,,2023-09-18 12:08:45,2023-09-18 12:08:49,3.727s,PASSED
"sendKeys(findTestObject(""or2_Mobile/orm1_registerAsUser/Register - Kata Sandi""), ""****$$$$$$$$$$$$"")",,,,2023-09-18 12:08:49,2023-09-18 12:08:51,2.423s,PASSED
"verifyElementText(findTestObject(""or2_Mobile/orm1_registerAsUser/Register - Password atleast must contain alphanumeric (a-Z,0-9) with minim 8 characters""), ""Password atleast must contain alphanumeric (a-Z,0-9) with minim 8 characters"")",,,,2023-09-18 12:08:51,2023-09-18 12:08:54,2.433s,PASSED
closeApplication(),,,,2023-09-18 12:08:54,2023-09-18 12:09:00,6.308s,PASSED
